<?xml version="1.0" encoding="UTF-8"?>
<svg width="40px" height="40px" viewBox="0 0 40 40" version="1.1" xmlns="http://www.w3.org/2000/svg" xmlns:xlink="http://www.w3.org/1999/xlink">
    <!-- Generator: sketchtool 52.3 (67297) - http://www.bohemiancoding.com/sketch -->
    <title>E9CA3A24-F517-46B7-ADFD-033779F81151_Color</title>
    <desc>Created with sketchtool.</desc>
    <g id="Old" stroke="none" stroke-width="1" fill="none" fill-rule="evenodd">
        <g id="06--Social-Influencer" transform="translate(-160.000000, -1468.000000)">
            <g id="Pinterest" transform="translate(160.000000, 1468.000000)">
                <path d="M19.9671445,39.5692632 C8.9379716,39.5692632 0.000427736007,30.7671579 0.000427736007,19.9124211 C0.000427736007,9.05768421 8.9379716,0.257684211 19.9671445,0.257684211 C30.9941788,0.257684211 39.9338613,9.05768421 39.9338613,19.9124211 C39.9338613,30.7671579 30.9941788,39.5692632 19.9671445,39.5692632 Z" id="Fill-1892" fill="#FFFFFF"></path>
                <path d="M19.9431913,2.1 C9.94913952,2.1 1.84781955,10.0726316 1.84781955,19.9126316 C1.84781955,27.4578947 6.61707602,33.9042105 13.3475021,36.5 C13.1892398,35.0915789 13.0480869,32.9294737 13.4116625,31.3884211 C13.7388805,29.9989474 15.5332331,22.5357895 15.5332331,22.5357895 C15.5332331,22.5357895 14.992147,21.4684211 14.992147,19.8915789 C14.992147,17.4136842 16.4485881,15.5652632 18.2664662,15.5652632 C19.8084545,15.5652632 20.5548538,16.7063158 20.5548538,18.0747368 C20.5548538,19.6031579 19.5667836,21.8873684 19.0556391,24.0052632 C18.6300418,25.78 19.9603008,27.2242105 21.7354052,27.2242105 C24.9519799,27.2242105 27.4242941,23.8852632 27.4242941,19.0663158 C27.4242941,14.8010526 24.3125146,11.82 19.8661988,11.82 C14.718396,11.82 11.6964411,15.6221053 11.6964411,19.5505263 C11.6964411,21.0810526 12.2931328,22.7231579 13.0416708,23.6157895 C13.1892398,23.7926316 13.2106266,23.9463158 13.167853,24.1273684 C13.0309774,24.6894737 12.7251462,25.9 12.6652632,26.1463158 C12.586132,26.4726316 12.4022055,26.5421053 12.057878,26.3863158 C9.79943191,25.3505263 8.38790309,22.0957895 8.38790309,19.4852632 C8.38790309,13.8663158 12.5348037,8.70421053 20.3431245,8.70421053 C26.6201504,8.70421053 31.4984795,13.1084211 31.4984795,18.9926316 C31.4984795,25.1315789 27.565447,30.0726316 22.1096742,30.0726316 C20.2746867,30.0726316 18.5509106,29.1336842 17.9606349,28.0263158 C17.9606349,28.0263158 17.0538346,31.4263158 16.8335505,32.26 C16.4250627,33.8073684 15.3215038,35.7463158 14.5857978,36.9294737 C16.2774937,37.4473684 18.0761236,37.7252632 19.9431913,37.7252632 C29.9372431,37.7252632 38.0385631,29.7505263 38.0385631,19.9126316 C38.0385631,10.0726316 29.9372431,2.1 19.9431913,2.1" id="Fill-1894" fill="#BD081C"></path>
            </g>
        </g>
    </g>
</svg>